/*! Hammer.JS - v2.0.7 - 2016-04-22
 * http://hammerjs.github.io/
 *
 * Copyright (c) 2016 Jorik Tangelder;
 * Licensed under the MIT license */

/*! http://mths.be/base64 v0.1.0 by @mathias | MIT license */
