<svg width="1em" height="1em" viewBox="0 0 22 22" fill="none" xmlns="http://www.w3.org/2000/svg">
    <g clip-path="url(#clip0)">
        <path d="M9.875 19.625H3.125V19.625C2.71079 19.625 2.375 19.2892 2.375 18.875V3.125V3.125C2.375 2.71079 2.71079 2.375 3.125 2.375H13.0948V2.375C13.2936 2.37504 13.4844 2.45409 13.625 2.59475L16.4053 5.375V5.375C16.5459 5.51562 16.625 5.70635 16.625 5.90525V8.375" stroke="currentColor" stroke-linecap="round" stroke-linejoin="round"/>
        <path d="M15.125 19.625C17.6103 19.625 19.625 17.6103 19.625 15.125C19.625 12.6397 17.6103 10.625 15.125 10.625C12.6397 10.625 10.625 12.6397 10.625 15.125C10.625 17.6103 12.6397 19.625 15.125 19.625Z" stroke="currentColor" stroke-linecap="round" stroke-linejoin="round"/>
        <path d="M16.625 15.125H15.125V12.875" stroke="currentColor" stroke-linecap="round" stroke-linejoin="round"/>
    </g>
    <defs>
        <clipPath id="clip0">
            <rect width="18" height="18" fill="white" transform="translate(2 2)"/>
        </clipPath>
    </defs>
</svg>
