<svg width="24" height="24" viewBox="0 0 24 24" fill="none" xmlns="http://www.w3.org/2000/svg">
<path d="M21.0433 7.73773V7.73773C23.3976 12.7322 21.2572 18.6894 16.2627 21.0436C11.2682 23.3978 5.31085 21.2575 2.95666 16.263C0.602421 11.2686 2.74278 5.31134 7.73728 2.95719C10.323 1.73838 13.3068 1.6847 15.9347 2.8097" stroke="#595959" stroke-width="1.5" stroke-linecap="round" stroke-linejoin="round"/>
<path d="M6.65405 11.2955C7.14287 12.0324 8.13654 12.2336 8.87347 11.7448C9.05172 11.6265 9.20447 11.4738 9.3227 11.2955" stroke="#595959" stroke-width="1.5" stroke-linecap="round" stroke-linejoin="round"/>
<path d="M14.6599 11.2955C15.1487 12.0324 16.1424 12.2336 16.8793 11.7448C17.0576 11.6265 17.2103 11.4738 17.3286 11.2955" stroke="#595959" stroke-width="1.5" stroke-linecap="round" stroke-linejoin="round"/>
<path d="M12.5887 15.3429H11.3939C10.9869 15.3429 10.657 15.6729 10.657 16.0798V18.6089C10.657 19.0159 10.9869 19.3458 11.3939 19.3458H12.5887C12.9957 19.3458 13.3256 19.0159 13.3256 18.6089V16.0798C13.3256 15.6729 12.9957 15.3429 12.5887 15.3429Z" stroke="#595959" stroke-width="1.5" stroke-linecap="round" stroke-linejoin="round"/>
<path d="M19.3301 1.99988H21.9987L19.3301 4.66848H21.9987" stroke="#BFBFBF" stroke-width="1.5" stroke-linecap="round" stroke-linejoin="round"/>
<path d="M13.9927 6.00278H16.6613L13.9927 8.67138H16.6613" stroke="#BFBFBF" stroke-width="1.5" stroke-linecap="round" stroke-linejoin="round"/>
</svg>
